[
  {
    "description": "Added options to increase docker limits.",
    "type": "patch"
  },
  {
    "description": "Changed test image.",
    "type": "patch"
  },
  {
    "description": "Updated pipe shell logic. Add test case.",
    "type": "patch"
  },
  {
    "description": "Removed fail test due to bitbucket hanging.",
    "type": "patch"
  }
]